{"hash":"7712bf7719a2fd472f8c0c9e99e3e465e2443e46","data":{"posts":{"totalCount":7,"pageInfo":{"totalPages":3,"currentPage":3},"edges":[{"node":{"id":"584a4f6d02a160372d36c78d0a87d57d","title":"Testing complete IoT systems with hardware","date":"March 26, 2018","summary":"Article on automated end-to-end testing of an IoT system","timeToRead":9,"path":"/iot-testing"}}]}},"context":{}}