{"hash":"0114e74c47d48865701e9ca8c9c087a73b4a0c5a","data":{"posts":{"totalCount":4,"pageInfo":{"totalPages":2,"currentPage":2},"edges":[{"node":{"id":"584a4f6d02a160372d36c78d0a87d57d","title":"Testing complete IoT systems with hardware","date":"March 26, 2018","summary":"Article on automated end-to-end testing of an IoT system","timeToRead":9,"path":"/iot-testing"}}]}},"context":{}}