{"hash":"7712bf7719a2fd472f8c0c9e99e3e465e2443e46","data":{"posts":{"totalCount":7,"pageInfo":{"totalPages":3,"currentPage":1},"edges":[{"node":{"id":"925f14df176863cb4125c6cbdfa80488","title":"Creating a Twitter clone with both Copilot agent mode and Cursor","date":"May 5, 2025","summary":"Creating a Twitter Clone from scratch, first with Copilot Agent and then with Cursor","timeToRead":4,"path":"/twitter-clone"}},{"node":{"id":"52ddbd52907baf3d53f85341e703393a","title":"Visualizing CyBOK References with D3","date":"April 1, 2022","summary":"Using the D3 graphing library to visualise all references within the Cyber Security Body of Knowledge","timeToRead":3,"path":"/visualising-references"}},{"node":{"id":"48adf9a239418bbb8314bcd4124278fb","title":"Experiments with Generative Art using P5.js","date":"January 6, 2022","summary":"A show and tell about using the P5.js library to create generative art","timeToRead":4,"path":"/generative-art"}}]}},"context":{}}